<svg width="13" height="20" viewBox="0 0 13 20" fill="none" xmlns="http://www.w3.org/2000/svg">
<path d="M12.6834 2.35L5.05002 10L12.6833 17.65L10.3333 20L0.333351 10L10.3334 -2.05443e-07L12.6834 2.35Z" fill="#BEA360"/>
</svg>
