<svg width="53" height="54" viewBox="0 0 53 54" fill="none" xmlns="http://www.w3.org/2000/svg">
<path d="M46.0238 12.3671C41.8959 12.3671 37.9809 12.3884 34.0446 12.3458C33.3211 12.3458 32.619 11.9835 31.9168 11.7917C32.619 11.5786 33.3211 11.1949 34.002 11.1736C38.6618 11.1097 43.3428 11.1523 48.0026 11.131C48.5345 11.131 49.0877 11.0884 49.6622 10.8752C48.1941 9.63908 47.1089 8.12586 44.811 8.14717C32.8318 8.25374 20.8525 8.1898 8.89458 8.21111C8.63925 8.21111 8.4052 8.25373 8.06476 8.27504V11.067C8.89458 11.067 9.70315 11.067 10.5117 11.067C14.448 11.0884 33.9169 11.0884 37.8532 11.1736C38.2788 11.1736 38.7043 11.5999 39.1299 11.813C38.7256 11.9835 38.3213 12.3245 37.8958 12.3245C36.0872 12.3885 18.746 12.3458 16.8311 12.3458V47.8745C20.5759 48.5566 20.7674 48.8549 20.2567 52.9897H6.2349C5.70296 48.0237 6.19236 48.109 9.51165 47.9811V12.4737H7.89454C7.89454 13.8164 7.85198 15.0952 7.89454 16.374C7.95837 17.6314 7.51154 18.2069 6.19234 18.143C4.63908 18.079 3.08585 18.1003 1.5326 18.143C0.511276 18.143 -0.0206633 17.8019 0.000614225 16.6937C0.0218917 13.3262 0.0218917 9.93746 0.000614225 6.57001C0.000614225 5.50436 0.447423 5.0781 1.5113 5.12073C3.022 5.16335 4.51144 5.20598 6.02214 5.12073C6.70302 5.0781 7.53282 5.16336 7.83071 5.86668C7.89454 6.01588 7.91583 6.16506 7.9371 6.31426C7.9371 6.48476 7.95838 6.63395 8.00093 6.80445C8.42648 6.76183 8.85205 6.7192 9.27759 6.7192C9.70314 6.7192 10.1074 6.76183 10.5117 6.76183C10.6181 6.31425 10.916 5.84537 11.1075 5.44042C11.3202 4.99285 11.5543 4.56659 11.8096 4.14033C12.2564 3.35175 12.7884 2.58448 13.1714 1.73196C13.9374 0.112177 15.1714 -0.10095 16.6183 0.218744C26.4698 2.39267 36.3425 4.52396 46.1515 6.91102C47.8324 7.31596 49.3005 8.82919 50.6835 10.044C51.1091 10.4063 50.9176 11.472 51.0453 12.3671H47.2792C47.2792 14.9886 47.0451 17.4822 47.3855 19.9119C47.5345 21.0415 48.3856 22.4695 50.1303 22.3203C51.1304 22.235 51.4921 22.7466 51.5347 23.7056C51.7262 27.4567 51.7687 27.4567 48.109 27.4567C46.5557 27.4567 45.0025 27.4141 43.4492 27.4567C42.2151 27.4993 41.747 26.9878 41.8534 25.7943C41.9172 25.1336 41.896 24.4516 41.8534 23.7696C41.7896 22.7039 42.2151 22.2777 43.3003 22.2777C44.5556 22.2777 45.9599 20.935 46.0025 19.6349C46.0663 17.3117 46.0025 14.9673 46.0025 12.3671H46.0238ZM16.8098 6.91102H40.1086V6.7192L16.8098 1.54015V6.91102ZM6.61791 6.48476H1.38364V16.8002H6.61791V6.48476ZM7.42643 51.7535H19.1078C19.2993 49.2173 19.2993 49.2386 16.8524 49.3025C14.4267 49.3451 11.9798 49.3451 9.55418 49.3025C7.1711 49.2599 7.10727 49.3025 7.42643 51.7535ZM50.2367 23.6417H43.1726V26.0927H50.2367V23.6417ZM13.1926 26.9878C10.4691 30.9947 10.5968 29.5028 13.1501 33.4457C15.6608 30.8028 15.6821 29.7585 13.1926 26.9878ZM13.1926 24.2171C15.6608 21.4891 15.6396 20.1037 13.1288 17.8019C11.5968 20.0043 11.6181 22.1427 13.1926 24.2171ZM13.1926 42.7381C15.7034 39.6051 15.7034 38.8805 13.1926 36.2377C10.5542 40.3084 10.6181 38.6247 13.1926 42.7381ZM15.448 1.49752L14.9799 1.28439L11.4692 6.88971H15.4268V1.49752H15.448ZM11.5117 47.9172H14.9374L13.2139 45.2317L11.5117 47.9172ZM11.5117 12.5376L13.2352 15.2657L14.9161 12.5376H11.5117ZM10.9798 14.264V18.4627C12.7671 16.5232 12.7671 16.5019 10.9798 14.264ZM10.9798 27.5846C12.7458 25.8582 12.7458 25.3681 10.9798 23.5991V27.5846ZM10.9372 37.0262C12.8097 34.7884 12.7884 34.3621 10.9372 32.9342V37.0262ZM11.0223 42.0348V46.1056C12.7458 43.953 12.7458 43.9103 11.0223 42.0348ZM15.448 14.4132C13.682 16.2887 13.7033 16.7789 15.448 18.2282V14.4132ZM15.3842 27.7338V23.5351C13.5331 25.9861 13.831 25.3894 15.3842 27.7338ZM13.9799 34.8736L15.3842 37.0476V32.6145C14.9587 33.2538 14.7033 33.6375 14.448 34.0424C14.2778 34.2982 14.1501 34.5753 13.9799 34.8736ZM15.448 42.0135C13.7246 43.9956 13.7246 44.0808 15.448 46.0416V42.0135Z" fill="#BEA360"/>
<path d="M40.2363 41.5233V48.0877H35.5553V41.5233H40.2363ZM36.7894 42.7168V46.8728H38.9809V42.7168H36.7894Z" fill="#BEA360"/>
<path d="M27.3847 48.109V41.5446H32.0232V48.109H27.3847ZM30.8104 46.9581V42.7381H28.6614V46.9581H30.8104Z" fill="#BEA360"/>
<path d="M43.7684 48.0877V41.5233H48.3643V48.0877H43.7684ZM47.1515 46.9368V42.7168H45.0025V46.9368H47.1515Z" fill="#BEA360"/>
<path d="M48.5345 36.0032C48.5345 35.7474 48.5345 35.4917 48.5133 35.2146V33.3391H47.2366V35.4704C47.1728 35.7474 47.0238 35.9393 46.726 36.0245H44.9812V31.698H43.7046V34.9802C43.7046 35.2572 43.6407 35.5769 43.4918 35.7901C43.428 35.8966 43.3428 35.9606 43.2364 36.0245H40.7257C40.5342 35.9393 40.4491 35.7048 40.3853 35.3851V32.9768H39.1086V35.6622C39.1086 35.8753 39.0873 36.0245 39.0873 36.0245H36.7043V30.4831H32.1722C32.1722 29.7585 32.2147 29.0552 32.1722 28.3305V27.6272H30.8955V30.3553H28.6401V28.3092C28.6401 28.1813 28.6401 28.0535 28.6401 27.9256V25.6238H27.3422C27.3422 25.6238 27.3422 25.6877 27.3422 25.709V28.3518C27.2996 29.5027 27.2571 30.5897 27.3422 30.5897H23.2569V53.0323H52.7262V36.0245H48.5984L48.5345 36.0032ZM28.6614 31.9751H30.8317V36.0671H28.6614V31.9751ZM51.407 51.8174H24.3633V31.8898H27.2996V37.218H32.0445V31.8685H35.4064V37.2607H51.407V51.8174Z" fill="#BEA360"/>
</svg>
