<svg width="51" height="50" viewBox="0 0 51 50" fill="none" xmlns="http://www.w3.org/2000/svg">
<g clip-path="url(#clip0_34_1326)">
<path d="M11.13 28.5601H7.74999C7.18999 28.5601 6.73999 29.0101 6.73999 29.5701V32.9501C6.73999 33.5001 7.18999 33.9501 7.74999 33.9501H11.13C11.68 33.9501 12.13 33.5001 12.13 32.9501V29.5701C12.13 29.0101 11.68 28.5601 11.13 28.5601ZM10.12 31.9401H8.74999V30.5701H10.12V31.9401Z" fill="#094976"/>
<path d="M11.13 36.4399H7.74999C7.18999 36.4399 6.73999 36.8899 6.73999 37.4399V40.8199C6.73999 41.3799 7.18999 41.8299 7.74999 41.8299H11.13C11.68 41.8299 12.13 41.3799 12.13 40.8199V37.4399C12.13 36.8899 11.68 36.4399 11.13 36.4399ZM10.12 39.8199H8.74999V38.4499H10.12V39.8199Z" fill="#094976"/>
<path d="M39.1201 33.9501H42.5001C43.0601 33.9501 43.5101 33.5001 43.5101 32.9501V29.5701C43.5101 29.0101 43.0601 28.5601 42.5001 28.5601H39.1201C38.5701 28.5601 38.1201 29.0101 38.1201 29.5701V32.9501C38.1201 33.5001 38.5701 33.9501 39.1201 33.9501ZM40.1301 30.5701H41.5001V31.9401H40.1301V30.5701Z" fill="#094976"/>
<path d="M39.1201 41.84H42.5001C43.0601 41.84 43.5101 41.39 43.5101 40.83V37.45C43.5101 36.9 43.0601 36.45 42.5001 36.45H39.1201C38.5701 36.45 38.1201 36.9 38.1201 37.45V40.83C38.1201 41.39 38.5701 41.84 39.1201 41.84ZM40.1301 38.4599H41.5001V39.83H40.1301V38.4599Z" fill="#094976"/>
<path d="M30.7599 21.8101H27.3799C26.8299 21.8101 26.3799 22.2601 26.3799 22.8201V26.2001C26.3799 26.7501 26.8299 27.2001 27.3799 27.2001H30.7599C31.3199 27.2001 31.7699 26.7501 31.7699 26.2001V22.8201C31.7699 22.2601 31.3199 21.8101 30.7599 21.8101ZM29.7599 25.1901H28.3899V23.8201H29.7599V25.1901Z" fill="#094976"/>
<path d="M30.7599 29.7H27.3799C26.8299 29.7 26.3799 30.1499 26.3799 30.7099V34.09C26.3799 34.64 26.8299 35.09 27.3799 35.09H30.7599C31.3199 35.09 31.7699 34.64 31.7699 34.09V30.7099C31.7699 30.1499 31.3199 29.7 30.7599 29.7ZM29.7599 33.08H28.3899V31.7099H29.7599V33.08Z" fill="#094976"/>
<path d="M49.25 47.8801H47.72V24.1801C47.72 23.6301 47.27 23.1701 46.71 23.1701H35.9V15.8501C35.9 15.3001 35.45 14.8401 34.9 14.8401H15.35C14.79 14.8401 14.34 15.2901 14.34 15.8501V23.1701H3.54C2.99 23.1701 2.54 23.6201 2.54 24.1801V47.8801H1.01C0.45 47.8801 0 48.3301 0 48.8901C0 49.4501 0.45 49.9001 1.01 49.9001H49.25C49.8 49.9001 50.25 49.4501 50.25 48.8901C50.25 48.3301 49.8 47.8801 49.25 47.8801ZM45.71 47.8801H35.91V25.1901H45.71V47.8801ZM4.55 25.1901H14.35V47.8801H4.55V25.1901ZM27.46 47.8801H22.81V42.2601H27.46V47.8801ZM29.47 47.8801V41.2501C29.47 40.7001 29.02 40.2401 28.47 40.2401H21.81C21.25 40.2401 20.8 40.6901 20.8 41.2501V47.8801H16.37V16.8601H33.9V47.8801H29.47Z" fill="#094976"/>
<path d="M22.88 29.6799H19.5C18.94 29.6799 18.49 30.1299 18.49 30.6799V34.0599C18.49 34.6099 18.94 35.0599 19.5 35.0599H22.88C23.43 35.0599 23.88 34.6099 23.88 34.0599V30.6799C23.88 30.1299 23.43 29.6799 22.88 29.6799ZM21.87 33.0599H20.5V31.6899H21.87V33.0599Z" fill="#094976"/>
<path d="M22.88 21.8H19.5C18.94 21.8 18.49 22.25 18.49 22.8V26.18C18.49 26.7301 18.94 27.18 19.5 27.18H22.88C23.43 27.18 23.88 26.7301 23.88 26.18V22.8C23.88 22.25 23.43 21.8 22.88 21.8ZM21.87 25.18H20.5V23.81H21.87V25.18Z" fill="#094976"/>
<path d="M21.44 8.10001L20.32 11.55C20.19 11.96 20.33 12.42 20.69 12.67C21.04 12.92 21.52 12.92 21.87 12.67L24.81 10.53L27.75 12.67C27.93 12.8 28.13 12.86 28.34 12.86C28.55 12.86 28.75 12.79 28.93 12.67C29.28 12.41 29.43 11.96 29.3 11.55L28.18 8.10001L31.12 5.97001C31.47 5.71001 31.62 5.26001 31.49 4.85001C31.36 4.44001 30.97 4.16001 30.53 4.16001H26.9L25.78 0.71001C25.64 0.30001 25.26 0.0100098 24.82 0.0100098C24.38 0.0100098 24 0.29001 23.86 0.71001L22.74 4.16001H19.11C18.67 4.16001 18.29 4.44001 18.15 4.85001C18.02 5.26001 18.16 5.72001 18.52 5.97001L21.46 8.10001H21.44ZM23.45 6.16001C23.89 6.16001 24.27 5.88001 24.41 5.47001L24.8 4.26001L25.19 5.47001C25.32 5.88001 25.71 6.16001 26.15 6.16001H27.42L26.39 6.91001C26.04 7.17001 25.89 7.62001 26.02 8.03001L26.41 9.24001L25.38 8.49001C25.03 8.23001 24.55 8.23001 24.2 8.49001L23.17 9.24001L23.56 8.03001C23.69 7.62001 23.55 7.16001 23.19 6.91001L22.16 6.16001H23.43H23.45Z" fill="#094976"/>
<path d="M11.54 10.83L10.77 13.21C10.63 13.62 10.78 14.08 11.14 14.33C11.49 14.59 11.97 14.59 12.32 14.33L14.34 12.86L16.36 14.33C16.54 14.46 16.74 14.52 16.95 14.52C17.16 14.52 17.36 14.46 17.54 14.33C17.89 14.07 18.04 13.62 17.91 13.21L17.14 10.83L19.16 9.35998C19.51 9.09998 19.66 8.64998 19.53 8.23998C19.4 7.82998 19.01 7.54998 18.57 7.54998H16.07L15.3 5.16998C15.17 4.75998 14.78 4.47998 14.34 4.47998C13.9 4.47998 13.52 4.75998 13.38 5.16998L12.61 7.54998H10.11C9.66996 7.54998 9.28996 7.82998 9.14996 8.23998C9.01996 8.64998 9.15996 9.10998 9.51996 9.35998L11.54 10.83ZM13.34 9.54998C13.77 9.54998 14.16 9.26998 14.3 8.85998L14.34 8.72998L14.38 8.85998C14.51 9.26998 14.9 9.54998 15.34 9.54998H15.48L15.37 9.62998C15.02 9.88998 14.87 10.34 15 10.75L15.04 10.88L14.93 10.8C14.75 10.67 14.55 10.61 14.34 10.61C14.13 10.61 13.93 10.68 13.75 10.8L13.64 10.88L13.68 10.75C13.81 10.34 13.67 9.87998 13.31 9.62998L13.2 9.54998H13.34Z" fill="#094976"/>
<path d="M3.90008 18.14L3.23008 20.21C3.10008 20.62 3.24008 21.08 3.60008 21.33C3.95008 21.59 4.43008 21.59 4.78008 21.33L6.54008 20.05L8.30008 21.33C8.48008 21.46 8.68008 21.52 8.89008 21.52C9.10008 21.52 9.30008 21.46 9.48008 21.33C9.83008 21.07 9.98008 20.62 9.85008 20.21L9.18008 18.14L10.9401 16.86C11.2901 16.6 11.4401 16.15 11.3101 15.74C11.1801 15.33 10.7901 15.05 10.3501 15.05H8.17008L7.50008 12.98C7.37008 12.57 6.98008 12.28 6.54008 12.28C6.10008 12.28 5.72008 12.56 5.58008 12.98L4.91008 15.05H2.73008C2.29008 15.05 1.91008 15.33 1.77008 15.74C1.64008 16.15 1.78008 16.61 2.14008 16.86L3.90008 18.14ZM6.53008 16.5C6.68008 16.79 6.96008 16.99 7.28008 17.04C7.05008 17.27 6.94008 17.6 6.99008 17.92C6.85008 17.85 6.69008 17.81 6.53008 17.81C6.37008 17.81 6.21008 17.85 6.07008 17.92C6.12008 17.6 6.02008 17.27 5.78008 17.04C6.10008 16.99 6.38008 16.79 6.53008 16.5Z" fill="#094976"/>
<path d="M38.5201 15.3899C38.3901 15.7999 38.5301 16.2599 38.8901 16.5099L40.6501 17.7899L39.9801 19.8599C39.8501 20.2699 39.9901 20.7299 40.3501 20.9799C40.5301 21.1099 40.7301 21.1699 40.9401 21.1699C41.1501 21.1699 41.3501 21.1099 41.5301 20.9799L43.2901 19.6999L45.0501 20.9799C45.4001 21.2399 45.8801 21.2399 46.2301 20.9799C46.5801 20.7299 46.7301 20.2699 46.6001 19.8599L45.9301 17.7899L47.6901 16.5099C48.0401 16.2499 48.1901 15.7999 48.0601 15.3899C47.9301 14.9799 47.5401 14.6999 47.1001 14.6999H44.9201L44.2501 12.6299C44.1201 12.2199 43.7301 11.9399 43.2901 11.9399C42.8501 11.9399 42.4701 12.2199 42.3301 12.6299L41.6601 14.6999H39.4801C39.0401 14.6999 38.6601 14.9799 38.5201 15.3899ZM43.2801 16.1499C43.4301 16.4399 43.7001 16.6399 44.0301 16.6899C43.8001 16.9199 43.6901 17.2499 43.7401 17.5699C43.6001 17.4999 43.4401 17.4599 43.2801 17.4599C43.1201 17.4599 42.9601 17.4999 42.8201 17.5699C42.8701 17.2499 42.7701 16.9199 42.5301 16.6899C42.8501 16.6399 43.1301 16.4399 43.2801 16.1499Z" fill="#094976"/>
<path d="M30.14 8.03002C30.01 8.44002 30.15 8.90002 30.51 9.15002L32.53 10.62L31.76 13C31.63 13.41 31.77 13.87 32.13 14.12C32.48 14.38 32.96 14.38 33.31 14.12L35.33 12.65L37.35 14.12C37.53 14.25 37.73 14.31 37.94 14.31C38.15 14.31 38.35 14.25 38.53 14.12C38.88 13.86 39.03 13.41 38.9 13L38.13 10.62L40.15 9.15002C40.5 8.89002 40.65 8.44002 40.52 8.03002C40.38 7.62002 40 7.34002 39.56 7.34002H37.06L36.29 4.96002C36.16 4.55002 35.77 4.27002 35.33 4.27002C34.89 4.27002 34.51 4.55002 34.37 4.96002L33.6 7.34002H31.1C30.66 7.34002 30.28 7.62002 30.14 8.03002ZM34.33 9.35002C34.76 9.35002 35.15 9.07002 35.29 8.66002L35.33 8.53002L35.37 8.66002C35.5 9.07002 35.89 9.35002 36.33 9.35002H36.47L36.36 9.43002C36.01 9.69002 35.86 10.14 35.99 10.55L36.03 10.68L35.92 10.6C35.74 10.47 35.54 10.41 35.33 10.41C35.12 10.41 34.92 10.47 34.74 10.6L34.63 10.68L34.67 10.55C34.8 10.14 34.66 9.68002 34.3 9.43002L34.19 9.35002H34.33Z" fill="#094976"/>
</g>
<defs>
<clipPath id="clip0_34_1326">
<rect width="50.25" height="49.89" fill="white"/>
</clipPath>
</defs>
</svg>
