<svg width="56" height="55" viewBox="0 0 56 55" fill="none" xmlns="http://www.w3.org/2000/svg">
<g clip-path="url(#clip0_34_1387)">
<path d="M53.5399 54.6999H51.0499V34.4299L53.3699 32.1099V30.3799H25.6499V33.0099L27.9699 34.1799V54.6999H25.4799V35.7199L23.1599 34.5499V27.8899H55.8699V33.1399L53.5399 35.4599V54.6999Z" fill="#094976"/>
<path d="M41.9201 29.1399H39.4301V15.1899C39.4301 12.9699 37.9001 11.4399 36.8001 10.6299H32.9401C31.8401 11.4499 30.3101 12.9799 30.3101 15.1899V29.1299H27.8201V15.1899C27.8201 11.6099 30.3501 9.36989 31.8501 8.34989L32.1701 8.13989H37.5801L37.9001 8.34989C39.4101 9.36989 41.9301 11.6099 41.9301 15.1899V29.1299L41.9201 29.1399Z" fill="#094976"/>
<path d="M47.7301 26.81H45.2401V3.57C45.2401 2.98 44.7601 2.49 44.1601 2.49H37.1901C36.6001 2.49 36.1101 2.97 36.1101 3.57V5.89H33.6201V3.57C33.6201 1.6 35.2201 0 37.1901 0H44.1601C46.1301 0 47.7301 1.6 47.7301 3.57V26.81Z" fill="#094976"/>
<path d="M46.49 12.78H43V15.27H46.49V12.78Z" fill="#094976"/>
<path d="M46.49 18.5901H43V21.0801H46.49V18.5901Z" fill="#094976"/>
<path d="M52.3799 19.8401H49.8899V27.9801H52.3799V19.8401Z" fill="#094976"/>
<path d="M52.2901 33.7H41.8301V36.1899H52.2901V33.7Z" fill="#094976"/>
<path d="M43.0801 46.5701H40.5901V50.0601H43.0801V46.5701Z" fill="#094976"/>
<path d="M38.4299 46.5701H35.9399V50.0601H38.4299V46.5701Z" fill="#094976"/>
<path d="M33.78 46.5701H31.29V50.0601H33.78V46.5701Z" fill="#094976"/>
<path d="M47.73 46.5701H45.24V50.0601H47.73V46.5701Z" fill="#094976"/>
<path d="M32.54 33.7H26.73V36.1899H32.54V33.7Z" fill="#094976"/>
<path d="M4.72999 54.6999H2.23999V40.6699H24.4V43.1699H4.72999V54.6999Z" fill="#094976"/>
<path d="M18.6799 46.5701H16.1899V50.0601H18.6799V46.5701Z" fill="#094976"/>
<path d="M14.03 46.5701H11.54V50.0601H14.03V46.5701Z" fill="#094976"/>
<path d="M9.37989 46.5701H6.88989V50.0601H9.37989V46.5701Z" fill="#094976"/>
<path d="M23.3201 46.5701H20.8301V50.0601H23.3201V46.5701Z" fill="#094976"/>
<path d="M21 43.17H11.54V12.78H21.01V43.16L21 43.17ZM14.03 40.68H18.51V15.28H14.03V40.68Z" fill="#094976"/>
<path d="M17.52 11.7001H15.03C15.03 10.8701 14.67 9.61007 13.65 8.81007C12.67 8.04007 11.3 7.85007 9.59999 8.27007C5.22999 9.33007 2.07999 8.81007 0.23999 6.72007L2.10999 5.07007C3.28999 6.41007 5.61999 6.67007 9.01999 5.85007C12.12 5.10007 14.09 5.99007 15.2 6.86007C16.92 8.21007 17.53 10.2501 17.53 11.7101L17.52 11.7001Z" fill="#094976"/>
<path d="M8.21998 29.1399H5.72998V41.9199H8.21998V29.1399Z" fill="#094976"/>
</g>
<defs>
<clipPath id="clip0_34_1387">
<rect width="55.87" height="54.7" fill="white"/>
</clipPath>
</defs>
</svg>
