<svg width="55" height="55" viewBox="0 0 55 55" fill="none" xmlns="http://www.w3.org/2000/svg">
<path d="M52.5979 54.0497H50.1297V34.0155L52.4277 31.735V30.03H25.0861V32.6302L27.3841 33.7811V54.0497H24.9159V35.2943L22.618 34.1434V27.5577H54.8959V32.758L52.5979 35.0385V54.0497Z" fill="#BEA360"/>
<path d="M41.1294 28.7939H38.6612V15.0257C38.6612 12.8304 37.1505 11.3172 36.0653 10.5073H32.2567C31.1715 11.3172 29.6608 12.8304 29.6608 15.0257V28.7939H27.1926V15.0257C27.1926 11.4877 29.6821 9.27117 31.1715 8.26946L31.4907 8.05634H36.8313L37.1505 8.26946C38.6399 9.27117 41.1294 11.4877 41.1294 15.0257V28.7939Z" fill="#BEA360"/>
<path d="M46.853 26.492H44.3848V3.53795C44.3848 2.94119 43.9167 2.4723 43.3209 2.4723H36.4483C35.8525 2.4723 35.3844 2.94119 35.3844 3.53795V5.83976H32.9163V3.53795C32.9163 1.59847 34.4908 0 36.427 0H43.2997C45.2359 0 46.8104 1.57716 46.8104 3.53795V26.492H46.853Z" fill="#BEA360"/>
<path d="M45.6402 12.6386H42.1932V15.1109H45.6402V12.6386Z" fill="#BEA360"/>
<path d="M45.6402 18.3718H42.1932V20.8441H45.6402V18.3718Z" fill="#BEA360"/>
<path d="M51.4489 19.6079H48.9808V27.6429H51.4489V19.6079Z" fill="#BEA360"/>
<path d="M51.3638 33.3122H41.0443V35.7845H51.3638V33.3122Z" fill="#BEA360"/>
<path d="M42.2783 46.0147H39.8102V49.4674H42.2783V46.0147Z" fill="#BEA360"/>
<path d="M37.7037 46.0147H35.2355V49.4674H37.7037V46.0147Z" fill="#BEA360"/>
<path d="M33.1078 46.0147H30.6396V49.4674H33.1078V46.0147Z" fill="#BEA360"/>
<path d="M46.8743 46.0147H44.4061V49.4674H46.8743V46.0147Z" fill="#BEA360"/>
<path d="M31.8737 33.3122H26.15V35.7845H31.8737V33.3122Z" fill="#BEA360"/>
<path d="M4.44699 54.0497H2.00008V40.1963H23.8521V42.6473H4.44699V54.0497Z" fill="#BEA360"/>
<path d="M18.2135 46.0147H15.7453V49.4674H18.2135V46.0147Z" fill="#BEA360"/>
<path d="M13.6389 46.0147H11.1707V49.4674H13.6389V46.0147Z" fill="#BEA360"/>
<path d="M9.04293 46.0147H6.57474V49.4674H9.04293V46.0147Z" fill="#BEA360"/>
<path d="M22.8095 46.0147H20.3413V49.4674H22.8095V46.0147Z" fill="#BEA360"/>
<path d="M20.4902 42.6473H11.1494V12.6173H20.4902V42.6473ZM13.6176 40.175H18.0433V15.0896H13.6176V40.175Z" fill="#BEA360"/>
<path d="M17.0645 11.5729H14.5963C14.5963 10.7417 14.2346 9.50558 13.2346 8.717C12.2558 7.94973 10.9153 7.77923 9.23442 8.18417C4.9151 9.22851 1.80859 8.717 0 6.64964L1.85114 5.00854C3.0214 6.32995 5.31937 6.58571 8.65993 5.77581C11.7239 5.02986 13.6601 5.90369 14.7666 6.77752C16.4688 8.12023 17.0645 10.1237 17.0645 11.5729Z" fill="#BEA360"/>
<path d="M7.89394 28.7938H5.42576V41.4324H7.89394V28.7938Z" fill="#BEA360"/>
</svg>
