<svg width="29" height="51" viewBox="0 0 29 51" fill="none" xmlns="http://www.w3.org/2000/svg">
<path d="M5.31937 19.6366H4.27678V17.1643H5.31937C6.34069 17.1643 7.17052 16.333 7.17052 15.31C7.17052 14.287 6.3407 13.4984 5.29811 13.4984H4.27678V11.0261H5.29811C7.68118 11.0261 9.6387 12.9443 9.6387 15.2887C9.6387 17.6331 7.70245 19.5939 5.31937 19.5939V19.6366Z" fill="#BEA360"/>
<path d="M8.57482 25.7534H4.29806V23.2811H6.12793V21.235L7.00029 20.9793C7.87267 20.7235 8.68122 20.2546 9.36209 19.6153L10.0217 18.9972L11.7664 20.0202L12.575 18.6135L10.8302 17.6118L11.043 16.7167C11.1707 16.2265 11.2132 15.7789 11.2132 15.3314C11.2132 14.8838 11.1494 14.4362 11.043 13.9673L10.8302 13.0722L12.5537 12.0705L11.7452 10.6638L10.0217 11.6655L9.36209 11.0261C8.68122 10.3867 7.85139 9.89654 6.97901 9.64078L6.10664 9.38503V7.38161H4.27678V4.9093H8.55356V7.59474C9.19188 7.87181 9.78764 8.21281 10.3409 8.63907L12.6601 7.29636L15.9368 12.9656L13.6176 14.3083C13.6601 14.6493 13.6814 14.9903 13.6814 15.31C13.6814 15.6297 13.6601 16.0134 13.6176 16.3544L15.9368 17.6971L12.6601 23.3663L10.2983 22.0023C9.76637 22.4073 9.1706 22.7483 8.55356 23.004V25.7321L8.57482 25.7534Z" fill="#BEA360"/>
<path d="M24.6606 33.9162H23.6393C21.2775 33.9162 19.3625 31.9767 19.3625 29.611C19.3625 27.2452 21.2349 25.3484 23.6393 25.3484H24.6606V27.8207H23.6393C22.618 27.8207 21.8094 28.6093 21.8094 29.6323C21.8094 30.6553 22.618 31.4865 23.6393 31.4865H24.6606V33.9588V33.9162Z" fill="#BEA360"/>
<path d="M24.6606 40.033H20.3838V37.2837C19.7668 37.0279 19.1923 36.6869 18.6604 36.282L16.2773 37.646L13.0005 31.9767L15.3624 30.6127C15.3198 30.2717 15.2985 29.9307 15.2985 29.5897C15.2985 29.2487 15.2985 28.929 15.3624 28.6093L13.0005 27.2453L16.2773 21.576L18.6178 22.9187C19.171 22.5138 19.7455 22.1515 20.3838 21.8957V19.2103H24.6606V21.6826H22.8307V23.686L21.9584 23.9417C21.086 24.1975 20.2774 24.6877 19.5966 25.3271L18.937 25.9665L17.1709 24.9435L16.3624 26.3501L18.1284 27.3731L17.9157 28.2683C17.8093 28.7159 17.7667 29.1847 17.7667 29.611C17.7667 30.0372 17.8305 30.5275 17.9369 30.975L18.1497 31.8702L16.3624 32.8932L17.1709 34.2998L18.9582 33.2768L19.6178 33.8949C20.2774 34.5343 21.1073 35.0032 21.9584 35.2589L22.8307 35.5147V37.5607H24.6606V40.033Z" fill="#BEA360"/>
<path d="M25.6819 50.242H3.27673C1.46815 50.242 0 48.7714 0 46.9811V4.1207C0 2.3091 1.46815 0.838501 3.27673 0.838501H25.6819C27.4905 0.838501 28.9374 2.3091 28.9374 4.1207V46.9811C28.9374 48.7927 27.4692 50.242 25.6819 50.242ZM3.27673 3.31081C2.82991 3.31081 2.46819 3.67313 2.46819 4.1207V46.9811C2.46819 47.4286 2.82991 47.791 3.27673 47.791H25.6819C26.1287 47.791 26.4905 47.4286 26.4905 46.9811V4.1207C26.4905 3.67313 26.1287 3.31081 25.6819 3.31081H3.27673Z" fill="#BEA360"/>
<path d="M27.7246 41.6528H1.2341V44.1251H27.7246V41.6528Z" fill="#BEA360"/>
<path d="M16.5113 44.7219H12.4261V47.1942H16.5113V44.7219Z" fill="#BEA360"/>
</svg>
