<svg width="63" height="48" viewBox="0 0 63 48" fill="none" xmlns="http://www.w3.org/2000/svg">
<path d="M32.1943 30.1238C32.8326 29.2712 33.4497 28.4827 34.0455 27.6941C34.9178 26.5432 35.7689 25.3923 36.62 24.2414C37.003 23.7299 37.3647 23.2397 37.5137 22.5576C37.7477 21.4707 38.9393 21.0231 39.9606 21.4707C40.2372 21.5986 40.5351 21.6838 40.833 21.6838C47.0034 21.6838 53.1739 21.6838 59.3656 21.6838C59.621 21.6838 59.8763 21.6199 60.1104 21.5133C60.9615 21.1297 62.0041 21.3428 62.5147 22.0461C62.919 22.6216 62.8126 23.7085 62.2594 24.284C61.6423 24.9447 60.7912 25.03 59.9401 24.5611C59.7274 24.4332 59.4508 24.3479 59.2167 24.3479C53.1101 24.3479 47.0034 24.3266 40.8968 24.3693C40.3436 24.3693 39.5989 24.7529 39.2584 25.2005C37.4711 27.4383 35.7689 29.7614 34.0667 32.0632C33.9178 32.2764 33.8114 32.5534 33.7901 32.8305C33.6625 33.8535 32.8326 34.5995 31.8326 34.5142C30.8325 34.429 30.1517 33.5765 30.2155 32.5108C30.2155 32.2764 30.1942 32.0206 30.0878 31.8288C27.492 26.6071 24.8749 21.4067 22.279 16.1851C22.2365 16.0998 22.1726 16.0146 22.0662 15.8654C21.3002 16.8884 20.5555 17.8688 19.8108 18.8705C18.6618 20.405 17.4916 21.9183 16.3851 23.4741C15.9383 24.0922 15.4064 24.3266 14.6617 24.3266C10.9807 24.3266 7.32093 24.3266 3.63992 24.3266C3.34204 24.3266 3.0016 24.4332 2.74627 24.5824C1.93773 25.0086 1.02281 24.8808 0.427036 24.2201C-0.1049 23.602 -0.147441 22.6642 0.341941 21.9822C0.8526 21.2789 1.76751 21.0871 2.61861 21.4707C2.87394 21.5773 3.15056 21.6412 3.42717 21.6412C6.8954 21.6412 10.3849 21.6412 13.8531 21.6412C14.2787 21.6412 14.5127 21.5133 14.7681 21.1723C16.5341 18.7853 18.3214 16.4408 20.0874 14.0538C20.3002 13.7554 20.4492 13.3718 20.5555 13.0094C20.7896 12.0717 21.5981 11.4536 22.5131 11.5388C23.4706 11.6454 24.1301 12.4553 24.1301 13.4357C24.1301 13.6915 24.1727 13.9685 24.2791 14.1817C26.8537 19.3394 29.4282 24.4971 32.0028 29.6336C32.0666 29.7401 32.1305 29.8467 32.2369 30.0385L32.1943 30.1238Z" fill="#BEA360"/>
<path d="M32.0028 7.40412C33.4284 4.5908 35.5349 2.52345 38.3648 1.30861C47.046 -2.46379 55.8974 2.289 58.1315 10.8355C58.7911 13.3504 58.7699 15.8654 58.1954 18.4016C58.0465 19.0623 57.6209 19.4246 56.9826 19.5099C56.4294 19.5738 55.9825 19.3181 55.7697 18.8279C55.6421 18.5295 55.5995 18.1459 55.6634 17.8262C56.1528 15.2473 56.174 12.711 55.1953 10.2387C53.6207 6.29584 50.8547 3.63172 46.6417 2.90708C42.1734 2.1185 38.2797 3.37596 35.3859 7.06311C34.1518 8.64027 33.5348 10.4945 33.3646 12.4979C33.3433 12.8176 33.322 13.1586 33.2795 13.4783C33.1944 14.2882 32.6411 14.7784 31.9177 14.7571C31.2155 14.7358 30.7474 14.1603 30.641 13.3717C30.4708 12.1782 30.3857 10.9208 29.9814 9.79117C28.5771 5.82696 25.6196 3.58909 21.5556 2.88577C12.8744 1.37255 6.70389 9.21572 8.17204 16.9736C8.23587 17.3573 8.32098 17.7409 8.34226 18.1245C8.38481 18.8492 7.93798 19.4459 7.29965 19.5738C6.61877 19.7017 5.93789 19.2968 5.76767 18.5508C5.59745 17.8048 5.44852 17.0589 5.38469 16.2916C4.98042 11.3683 6.40602 7.08442 10.087 3.67435C13.0872 0.90366 16.6618 -0.289867 20.747 0.0724537C24.6195 0.413461 27.8963 1.948 30.3857 4.99575C30.9815 5.72039 31.4709 6.5516 32.0454 7.40412H32.0028Z" fill="#BEA360"/>
<path d="M32.0454 44.2543C34.5349 41.718 36.9605 39.2244 39.4074 36.7521C42.5778 33.5552 45.7694 30.3795 48.961 27.2252C49.195 26.9908 49.4929 26.735 49.7908 26.6284C50.344 26.4366 50.876 26.6284 51.2377 27.0973C51.5994 27.5875 51.5994 28.1417 51.2377 28.6105C50.7909 29.1434 50.3015 29.6336 49.8121 30.1238C44.3225 35.6012 38.8116 41.0786 33.3221 46.5774C32.2369 47.643 31.6837 47.643 30.5985 46.5774C24.8111 40.8016 19.0236 35.0257 13.2361 29.2499C12.917 28.9302 12.6191 28.4827 12.5552 28.0564C12.4276 27.076 13.5765 26.394 14.4489 26.8842C14.7042 27.0334 14.9383 27.2465 15.1511 27.4596C20.5981 32.8731 26.0239 38.3079 31.4496 43.7214C31.5986 43.8706 31.7688 44.0198 32.0454 44.2756V44.2543Z" fill="#BEA360"/>
</svg>
