<svg width="53" height="53" viewBox="0 0 53 53" fill="none" xmlns="http://www.w3.org/2000/svg">
<g clip-path="url(#clip0_65_488)">
<path d="M27.24 1.79999C23.17 1.79999 19.16 2.77999 15.57 4.62999L11.36 0.449986C10.99 0.0799859 10.45 -0.0800141 9.93999 0.0299859C9.41999 0.139986 9.00999 0.499986 8.81999 0.989986L6.7 6.65999L1.01 8.77999C0.519996 8.95999 0.149996 9.37999 0.0399957 9.88999C-0.0700043 10.41 0.0899957 10.94 0.459996 11.31L4.66 15.49C2.8 19.07 1.81 23.06 1.81 27.11C1.81 41.06 13.21 52.41 27.24 52.41C41.27 52.41 52.66 41.06 52.66 27.11C52.66 13.16 41.25 1.79999 27.24 1.79999ZM27.24 35.43C31.85 35.43 35.61 31.69 35.61 27.1C35.61 22.51 31.85 18.77 27.24 18.77C25.49 18.77 23.86 19.31 22.52 20.22L18.63 16.36C20.99 14.48 23.98 13.36 27.23 13.36C34.84 13.36 41.03 19.53 41.03 27.1C41.03 34.67 34.83 40.84 27.23 40.84C19.63 40.84 13.43 34.68 13.43 27.1C13.43 23.86 14.56 20.89 16.45 18.54L20.33 22.4C19.41 23.74 18.86 25.35 18.86 27.1C18.86 31.69 22.62 35.43 27.23 35.43M28.32 26.01L24.76 22.46C25.5 22.06 26.34 21.84 27.24 21.84C30.14 21.84 32.51 24.2 32.51 27.1C32.51 30 30.14 32.35 27.24 32.35C24.34 32.35 21.96 30 21.96 27.1C21.96 26.21 22.18 25.37 22.58 24.64L26.15 28.19C26.45 28.49 26.84 28.64 27.24 28.64C27.64 28.64 28.03 28.49 28.33 28.19C28.94 27.59 28.94 26.62 28.33 26.02M10.88 4.31999L16.08 9.48999L15.41 13.16L9.7 7.46999L10.88 4.30999V4.31999ZM20.7 8.30999L23.87 7.13999L29.58 12.82L25.9 13.48L20.7 8.30999ZM27.24 49.33C14.92 49.33 4.91 39.36 4.91 27.1C4.91 23.88 5.62 20.69 6.97 17.78L7.93 18.73C8.22 19.02 8.61 19.18 9.02 19.18C9.12 19.18 9.21 19.17 9.3 19.15L12.7 18.53C11.21 21.04 10.34 23.96 10.34 27.09C10.34 36.36 17.92 43.9 27.24 43.9C36.56 43.9 44.13 36.36 44.13 27.09C44.13 17.82 36.55 10.27 27.24 10.27C24.1 10.27 21.16 11.13 18.65 12.62L19.27 9.22999C19.36 8.73999 19.2 8.21999 18.84 7.86999L17.88 6.90999C20.8 5.55999 24 4.85999 27.24 4.85999C39.55 4.85999 49.57 14.83 49.57 27.09C49.57 39.35 39.55 49.32 27.24 49.32" fill="#BDA25F"/>
</g>
<defs>
<clipPath id="clip0_65_488">
<rect width="52.66" height="52.41" fill="white"/>
</clipPath>
</defs>
</svg>
