<svg width="84" height="84" viewBox="0 0 84 84" fill="none" xmlns="http://www.w3.org/2000/svg">
<circle cx="42" cy="42" r="41" stroke="#0D4876" stroke-width="2"/>
<path d="M56 42.5L35.75 54.1913L35.75 30.8087L56 42.5Z" fill="#0D4876"/>
</svg>
