<svg width="54" height="61" viewBox="0 0 54 61" fill="none" xmlns="http://www.w3.org/2000/svg">
<g clip-path="url(#clip0_121_613)">
<path d="M53.8195 17.1384C53.1332 12.0877 50.5144 7.61641 46.4509 4.52087C39.6241 -0.674573 30.0884 -0.65647 23.2977 4.57518C22.8462 4.93723 22.7559 5.60702 23.0991 6.05959C23.4603 6.51215 24.1104 6.60266 24.58 6.25872C30.6302 1.60635 39.1004 1.58825 45.1867 6.20441C48.7987 8.956 51.1104 12.9205 51.7425 17.428C52.3566 21.9174 51.1827 26.3707 48.4375 29.9731C42.7847 37.4314 32.1111 38.8796 24.6703 33.2135C18.584 28.5973 16.3445 20.4149 19.1981 13.3549C19.4148 12.8119 19.1619 12.1964 18.6201 11.9791C18.0783 11.7619 17.4643 12.0153 17.2476 12.5584C14.0328 20.5054 16.5613 29.7016 23.388 34.897C26.8375 37.5038 30.883 38.771 34.9104 38.771C40.6716 38.771 46.3787 36.1642 50.1171 31.2403C53.2054 27.1853 54.5238 22.1709 53.8195 17.1203" fill="#BEA360"/>
<path d="M37.5472 41.9027L28.806 44.1836C28.788 43.894 28.7338 43.6043 28.6435 43.3328C28.3545 42.3915 27.7224 41.613 26.8555 41.1605L23.6227 39.4226C21.3833 38.2279 18.6742 37.5762 15.9652 37.5762H15.893C13.1839 37.5762 10.511 38.246 8.07291 39.495C7.72977 38.5899 6.84482 37.9382 5.81538 37.9382H2.42007C1.08361 37.9382 0 39.0244 0 40.364V50.9721C0 52.3117 1.08361 53.3978 2.42007 53.3978H5.81538C6.9893 53.3978 7.96455 52.547 8.19933 51.4427L21.5278 54.5021C21.9431 54.5926 22.3405 54.6288 22.7378 54.6288C24.0562 54.6288 25.3204 54.1943 26.4221 53.7418L39.4254 48.3834C41.1411 47.6774 42.5679 45.8672 41.8455 43.894C41.2134 42.1561 39.5157 41.3596 37.5291 41.8846L37.5472 41.9027ZM6.12241 50.9902C6.12241 51.1531 5.97793 51.2979 5.81538 51.2979H2.42007C2.25752 51.2979 2.11304 51.1531 2.11304 50.9902V40.3821C2.11304 40.2192 2.25752 40.0743 2.42007 40.0743H5.81538C5.99599 40.0743 6.12241 40.2192 6.12241 40.3821V50.9902ZM38.6308 46.4464L25.6274 51.8048C23.9839 52.4927 22.9184 52.6737 21.9973 52.4565L8.23545 49.3066V41.8303C13.6355 38.6804 19.3244 39.5494 22.6294 41.3053L25.8803 43.0432C26.2415 43.2423 26.5124 43.5681 26.6388 43.9664C26.7652 44.3646 26.7291 44.7991 26.5304 45.1612C26.115 45.9215 25.1759 46.2111 24.3993 45.8128L19.0535 42.9888C18.5478 42.7173 17.8977 42.9164 17.6268 43.4233C17.3559 43.9483 17.5545 44.5819 18.0602 44.8534L23.406 47.6774C23.9478 47.9671 24.5438 48.1119 25.1217 48.1119C26.2776 48.1119 27.4154 47.5507 28.1197 46.5732L38.089 43.9664C39.0281 43.7311 39.6241 43.9664 39.8769 44.6543C40.1298 45.3603 39.4254 46.1387 38.6488 46.4645" fill="#BEA360"/>
<path d="M22.9906 25.0312H27.903V28.0362C27.903 28.6155 28.3725 29.0862 28.9505 29.0862H40.8883C41.4662 29.0862 41.9357 28.6155 41.9357 28.0362V25.0312H46.8481C47.4261 25.0312 47.8956 24.5605 47.8956 23.9812V20.7228C47.8956 18.0798 46.5772 16.6859 45.2046 15.8713C45.5478 15.2196 45.7284 14.4593 45.7284 13.6809C45.7284 11.0017 43.5431 8.81128 40.8702 8.81128C38.414 8.81128 36.3913 10.6396 36.0662 13.0111C35.705 12.9206 35.3077 12.8663 34.9103 12.8663C34.513 12.8663 34.1337 12.9206 33.7545 13.0111C33.4294 10.6396 31.4067 8.81128 28.9505 8.81128C26.2776 8.81128 24.0923 11.0017 24.0923 13.6809C24.0923 14.4774 24.2909 15.2196 24.616 15.8713C23.2434 16.704 21.925 18.0798 21.925 20.7228V23.9812C21.925 24.5605 22.3946 25.0312 22.9725 25.0312H22.9906ZM39.8227 26.9682H29.998V24.7778C29.998 24.5424 29.998 24.3071 30.0341 24.0899C30.2147 22.8046 30.919 22.0986 31.9485 21.5736C32.7612 22.2072 33.7906 22.5873 34.8923 22.5873C35.9939 22.5873 37.0414 22.2072 37.8541 21.5736C38.8836 22.1167 39.5699 22.8227 39.7685 24.0899C39.8046 24.3071 39.8227 24.5424 39.8227 24.7778V26.9682ZM45.7826 22.9132H41.6648C41.2133 21.4288 40.2381 20.5236 39.2267 19.9263C39.4615 19.4556 39.6421 18.9306 39.7143 18.3875C40.0936 18.4781 40.4729 18.5324 40.8702 18.5324C41.9719 18.5324 43.0013 18.1522 43.8321 17.5186C45.024 18.1522 45.7826 19.003 45.7826 20.7228V22.9132ZM38.125 13.6628C38.125 12.1422 39.3531 10.9112 40.8702 10.9112C42.3873 10.9112 43.6153 12.1422 43.6153 13.6628C43.6153 15.1834 42.3873 16.4144 40.8702 16.4144C40.3645 16.4144 39.8769 16.2876 39.4434 16.0161C39.1725 15.292 38.721 14.6403 38.1612 14.1153C38.1431 13.9705 38.125 13.8076 38.125 13.6628ZM37.6555 17.7177C37.6555 19.2384 36.4274 20.4693 34.9103 20.4693C33.3933 20.4693 32.1652 19.2384 32.1652 17.7177C32.1652 16.1971 33.3933 14.9662 34.9103 14.9662C36.4274 14.9662 37.6555 16.1971 37.6555 17.7177ZM28.9324 10.9112C30.4495 10.9112 31.6776 12.1422 31.6776 13.6628C31.6776 13.8257 31.6595 13.9705 31.6414 14.1334C31.0816 14.6403 30.6301 15.292 30.3592 16.0161C29.9257 16.2695 29.4381 16.4144 28.9324 16.4144C27.4153 16.4144 26.1873 15.1834 26.1873 13.6628C26.1873 12.1422 27.4153 10.9112 28.9324 10.9112ZM24.02 20.7228C24.02 19.003 24.7786 18.1522 25.9705 17.5186C26.7832 18.1522 27.8127 18.5324 28.9143 18.5324C29.3117 18.5324 29.6909 18.4781 30.0702 18.3875C30.1424 18.9306 30.323 19.4556 30.5578 19.9263C29.5645 20.5236 28.5712 21.4288 28.1197 22.9132H24.002V20.7228H24.02Z" fill="#BEA360"/>
</g>
<defs>
<clipPath id="clip0_121_613">
<rect width="54" height="54" fill="white" transform="translate(0 0.646973)"/>
</clipPath>
</defs>
</svg>
