<svg width="56" height="61" viewBox="0 0 56 61" fill="none" xmlns="http://www.w3.org/2000/svg">
<path d="M52.1 53.95H51.42C51.44 53.8 51.46 53.66 51.46 53.51V51.9C51.46 50.4 50.24 49.18 48.73 49.18H47.29L45.81 31.87H47.92C49.21 31.87 50.26 30.83 50.26 29.54V28.11C50.26 26.94 49.39 25.96 48.24 25.8C48.31 25.54 48.35 25.27 48.35 25C48.35 23.32 46.98 21.95 45.29 21.95H44.76C45.98 20.64 46.67 18.91 46.67 17.12C46.67 13.2 43.47 10.02 39.53 10.02C35.59 10.02 32.39 13.21 32.39 17.12C32.39 18.91 33.08 20.64 34.3 21.95H33.77C32.08 21.95 30.71 23.32 30.71 25C30.71 25.27 30.75 25.54 30.82 25.79C29.68 25.94 28.8 26.92 28.8 28.1V29.53C28.8 30.81 29.85 31.86 31.14 31.86H33.26L31.78 49.17H30.34C29.77 49.17 29.21 49.35 28.75 49.68C28.29 49.35 27.73 49.17 27.16 49.17H26.78L24.46 42.25C23.93 40.66 23.66 39.01 23.66 37.33V27.83C24.82 27.37 25.58 26.25 25.58 25C25.58 24.73 25.54 24.46 25.47 24.2C26.61 24.05 27.49 23.07 27.49 21.9V20.46C27.49 19.29 26.62 18.31 25.47 18.15C25.54 17.9 25.57 17.63 25.57 17.36C25.57 16.14 24.85 15.05 23.75 14.57L25.27 11.55C25.47 11.14 25.57 10.7 25.57 10.27C25.57 8.68 24.28 7.39 22.68 7.39H20.87C21.36 6.62 21.61 5.74 21.61 4.83C21.61 2.16 19.43 0 16.75 0C14.07 0 11.89 2.17 11.89 4.83C11.89 5.75 12.14 6.63 12.63 7.39H10.82C9.23004 7.39 7.93004 8.68 7.93004 10.27C7.93004 10.71 8.04004 11.15 8.24004 11.55L9.76004 14.57C8.66004 15.05 7.93004 16.14 7.93004 17.36C7.93004 17.63 7.97004 17.9 8.04004 18.15C6.90004 18.3 6.02004 19.28 6.02004 20.46V21.9C6.02004 23.07 6.89004 24.04 8.05004 24.2C7.98004 24.46 7.94004 24.73 7.94004 25C7.94004 26.25 8.70004 27.36 9.86004 27.83V37.33C9.86004 39.01 9.59004 40.67 9.06004 42.25L6.74004 49.17H6.36004C4.85004 49.17 3.63004 50.39 3.63004 51.89V53.5C3.63004 53.65 3.64004 53.79 3.67004 53.94H2.99004C1.36004 53.94 0.0400391 55.26 0.0400391 56.88V58.05C0.0400391 59.67 1.37004 60.99 2.99004 60.99H52.1C53.73 60.99 55.05 59.67 55.05 58.05V56.88C55.05 55.26 53.72 53.94 52.1 53.94V53.95ZM14.16 4.83C14.16 3.42 15.32 2.27 16.74 2.27C18.16 2.27 19.32 3.42 19.32 4.83C19.32 6.24 18.16 7.39 16.74 7.39C15.32 7.39 14.16 6.24 14.16 4.83ZM10.98 16.59H22.49C22.92 16.59 23.27 16.94 23.27 17.36C23.27 17.78 22.92 18.13 22.49 18.13H10.98C10.55 18.13 10.2 17.79 10.2 17.36C10.2 16.93 10.55 16.59 10.98 16.59ZM23.21 10.54L21.31 14.32H12.16L10.26 10.54C10.22 10.46 10.2 10.37 10.2 10.28C10.2 9.95 10.47 9.68 10.8 9.68H22.66C22.99 9.68 23.27 9.95 23.27 10.28C23.27 10.37 23.25 10.46 23.21 10.55V10.54ZM25.19 21.91C25.19 21.91 25.16 21.96 25.13 21.96H8.34004C8.34004 21.96 8.28004 21.94 8.28004 21.91V20.47C8.28004 20.47 8.31004 20.41 8.34004 20.41H25.13C25.13 20.41 25.19 20.44 25.19 20.47V21.91ZM14.85 50.31C14.85 49.69 14.34 49.18 13.71 49.18H9.12004L11.2 42.98C11.81 41.15 12.12 39.25 12.12 37.34V28.06H21.35V37.34C21.35 39.26 21.66 41.16 22.27 42.98L24.35 49.18H17.89C17.26 49.18 16.75 49.69 16.75 50.31C16.75 50.93 17.26 51.45 17.89 51.45H27.14C27.39 51.45 27.59 51.65 27.59 51.89V53.5C27.59 53.74 27.39 53.94 27.13 53.94H6.33004C6.08004 53.94 5.88004 53.74 5.88004 53.5V51.89C5.88004 51.64 6.08004 51.45 6.33004 51.45H13.71C14.34 51.45 14.85 50.94 14.85 50.31ZM10.98 24.23H22.49C22.92 24.23 23.27 24.58 23.27 25.01C23.27 25.44 22.92 25.78 22.49 25.78H10.98C10.55 25.78 10.2 25.43 10.2 25.01C10.2 24.59 10.55 24.23 10.98 24.23ZM34.67 17.13C34.67 14.47 36.85 12.3 39.52 12.3C42.19 12.3 44.38 14.47 44.38 17.13C44.38 19.79 42.2 21.96 39.52 21.96C36.84 21.96 34.67 19.79 34.67 17.13ZM35.53 31.87H43.51L45 49.18H34.05L35.53 31.87ZM31.07 28.11C31.07 28.11 31.1 28.05 31.13 28.05H37.44C38.07 28.05 38.58 27.54 38.58 26.91C38.58 26.28 38.07 25.77 37.44 25.77H33.77C33.34 25.77 32.99 25.42 32.99 25C32.99 24.58 33.34 24.22 33.77 24.22H45.28C45.71 24.22 46.06 24.57 46.06 25C46.06 25.43 45.71 25.77 45.27 25.77H41.61C40.98 25.77 40.47 26.28 40.47 26.91C40.47 27.54 40.98 28.05 41.61 28.05H47.91C47.91 28.05 47.97 28.08 47.97 28.11V29.54C47.97 29.54 47.95 29.6 47.91 29.6H31.12C31.12 29.6 31.06 29.57 31.06 29.54V28.11H31.07ZM33.39 56.23H42.06C42.69 56.23 43.2 55.72 43.2 55.09C43.2 54.46 42.69 53.95 42.06 53.95H30.32C30.07 53.95 29.87 53.75 29.87 53.51V51.9C29.87 51.65 30.07 51.45 30.32 51.45H48.73C48.97 51.45 49.18 51.66 49.18 51.9V53.51C49.18 53.75 48.98 53.95 48.74 53.95H46.25C45.62 53.95 45.11 54.46 45.11 55.09C45.11 55.72 45.62 56.23 46.25 56.23H52.11C52.48 56.23 52.78 56.53 52.78 56.9V58.07C52.78 58.44 52.48 58.74 52.11 58.74H33.4C33.45 58.52 33.48 58.3 33.48 58.07V56.9C33.48 56.67 33.45 56.45 33.4 56.23H33.39ZM2.29004 56.9C2.29004 56.53 2.59004 56.23 2.96004 56.23H30.51C30.88 56.23 31.18 56.53 31.18 56.9V58.07C31.18 58.44 30.88 58.74 30.51 58.74H2.95004C2.58004 58.74 2.28004 58.44 2.28004 58.07V56.9H2.29004Z" fill="#BDA25F"/>
</svg>
